module github.com/42wim/matterbridge

require (
	github.com/42wim/go-gitter v0.0.0-20170828205020-017310c2d557
	github.com/Baozisoftware/qrcode-terminal-go v0.0.0-20170407111555-c0650d8dff0f
	github.com/Benau/tgsconverter v0.0.0-20210809170556-99f4a4f6337f
	github.com/Philipp15b/go-steam v1.0.1-0.20200727090957-6ae9b3c0a560
	github.com/Rhymen/go-whatsapp v0.1.2-0.20211102134409-31a2e740845c
	github.com/SevereCloud/vksdk/v2 v2.11.0
	github.com/d5/tengo/v2 v2.10.0
	github.com/davecgh/go-spew v1.1.1
	github.com/fsnotify/fsnotify v1.5.1
	github.com/go-telegram-bot-api/telegram-bot-api/v5 v5.5.0
	github.com/gomarkdown/markdown v0.0.0-20211207152620-5d6539fd8bfc
	github.com/google/gops v0.3.22
	github.com/gorilla/schema v1.2.0
	github.com/gorilla/websocket v1.4.2
	github.com/harmony-development/shibshib v0.0.0-20211127182844-512296f7c548
	github.com/hashicorp/golang-lru v0.5.4
	github.com/jpillora/backoff v1.0.0
	github.com/keybase/go-keybase-chat-bot v0.0.0-20211201215354-ee4b23828b55
	github.com/kyokomi/emoji/v2 v2.2.8
	github.com/labstack/echo/v4 v4.6.1
	github.com/lrstanley/girc v0.0.0-20211023233735-147f0ff77566
	github.com/matrix-org/gomatrix v0.0.0-20210324163249-be2af5ef2e16
	github.com/matterbridge/Rocket.Chat.Go.SDK v0.0.0-20211016222428-79310a412696
	github.com/matterbridge/discordgo v0.21.2-0.20210201201054-fb39a175b4f7
	github.com/matterbridge/go-xmpp v0.0.0-20211030125215-791a06c5f1be
	github.com/matterbridge/gozulipbot v0.0.0-20211023205727-a19d6c1f3b75
	github.com/matterbridge/logrus-prefixed-formatter v0.5.3-0.20200523233437-d971309a77ba
	github.com/matterbridge/matterclient v0.0.0-20211107234719-faca3cd42315
	github.com/mattermost/mattermost-server/v5 v5.39.0
	github.com/mattermost/mattermost-server/v6 v6.1.0
	github.com/mattn/godown v0.0.1
	github.com/missdeer/golib v1.0.4
	github.com/nelsonken/gomf v0.0.0-20180504123937-a9dd2f9deae9
	github.com/paulrosania/go-charset v0.0.0-20190326053356-55c9d7a5834c
	github.com/rs/xid v1.3.0
	github.com/russross/blackfriday v1.6.0
	github.com/saintfish/chardet v0.0.0-20120816061221-3af4cd4741ca
	github.com/shazow/ssh-chat v1.10.1
	github.com/sirupsen/logrus v1.8.1
	github.com/slack-go/slack v0.10.0
	github.com/spf13/viper v1.9.0
	github.com/stretchr/testify v1.7.0
	github.com/vincent-petithory/dataurl v1.0.0
	github.com/writeas/go-strip-markdown v2.0.1+incompatible
	github.com/yaegashi/msgraph.go v0.1.4
	github.com/zfjagann/golang-ring v0.0.0-20210116075443-7c86fdb43134
	golang.org/x/image v0.0.0-20211028202545-6944b10bf410
	golang.org/x/oauth2 v0.0.0-20211104180415-d3ed0bb246c8
	gomod.garykim.dev/nc-talk v0.3.0
	gopkg.in/olahol/melody.v1 v1.0.0-20170518105555-d52139073376
	layeh.com/gumble v0.0.0-20200818122324-146f9205029b
)

require (
	github.com/Benau/go_rlottie v0.0.0-20210807002906-98c1b2421989 // indirect
	github.com/Jeffail/gabs v1.4.0 // indirect
	github.com/apex/log v1.9.0 // indirect
	github.com/av-elier/go-decimal-to-rational v0.0.0-20191127152832-89e6aad02ecf // indirect
	github.com/blang/semver v3.5.1+incompatible // indirect
	github.com/dustin/go-humanize v1.0.0 // indirect
	github.com/dyatlov/go-opengraph v0.0.0-20210112100619-dae8665a5b09 // indirect
	github.com/francoispqt/gojay v1.2.13 // indirect
	github.com/go-asn1-ber/asn1-ber v1.5.3 // indirect
	github.com/golang-jwt/jwt v3.2.2+incompatible // indirect
	github.com/golang/protobuf v1.5.2 // indirect
	github.com/google/uuid v1.3.0 // indirect
	github.com/gopackage/ddp v0.0.3 // indirect
	github.com/hashicorp/errwrap v1.1.0 // indirect
	github.com/hashicorp/go-multierror v1.1.1 // indirect
	github.com/hashicorp/hcl v1.0.0 // indirect
	github.com/json-iterator/go v1.1.12 // indirect
	github.com/kettek/apng v0.0.0-20191108220231-414630eed80f // indirect
	github.com/klauspost/cpuid/v2 v2.0.9 // indirect
	github.com/labstack/gommon v0.3.0 // indirect
	github.com/magiconair/properties v1.8.5 // indirect
	github.com/mattermost/go-i18n v1.11.1-0.20211013152124-5c415071e404 // indirect
	github.com/mattermost/ldap v0.0.0-20201202150706-ee0e6284187d // indirect
	github.com/mattermost/logr v1.0.13 // indirect
	github.com/mattermost/logr/v2 v2.0.15 // indirect
	github.com/mattn/go-colorable v0.1.11 // indirect
	github.com/mattn/go-isatty v0.0.14 // indirect
	github.com/mattn/go-runewidth v0.0.13 // indirect
	github.com/mgutz/ansi v0.0.0-20200706080929-d51e80ef957d // indirect
	github.com/minio/md5-simd v1.1.2 // indirect
	github.com/minio/minio-go/v7 v7.0.14 // indirect
	github.com/minio/sha256-simd v1.0.0 // indirect
	github.com/mitchellh/go-homedir v1.1.0 // indirect
	github.com/mitchellh/mapstructure v1.4.2 // indirect
	github.com/modern-go/concurrent v0.0.0-20180306012644-bacd9c7ef1dd // indirect
	github.com/modern-go/reflect2 v1.0.2 // indirect
	github.com/monaco-io/request v1.0.5 // indirect
	github.com/mreiferson/go-httpclient v0.0.0-20201222173833-5e475fde3a4d // indirect
	github.com/mrexodia/wray v0.0.0-20160318003008-78a2c1f284ff // indirect
	github.com/pborman/uuid v1.2.1 // indirect
	github.com/pelletier/go-toml v1.9.4 // indirect
	github.com/philhofer/fwd v1.1.1 // indirect
	github.com/pkg/errors v0.9.1 // indirect
	github.com/pmezard/go-difflib v1.0.0 // indirect
	github.com/rickb777/date v1.12.4 // indirect
	github.com/rickb777/plural v1.2.0 // indirect
	github.com/rivo/uniseg v0.2.0 // indirect
	github.com/shazow/rateio v0.0.0-20200113175441-4461efc8bdc4 // indirect
	github.com/sizeofint/webpanimation v0.0.0-20210809145948-1d2b32119882 // indirect
	github.com/skip2/go-qrcode v0.0.0-20200617195104-da1b6568686e // indirect
	github.com/spf13/afero v1.6.0 // indirect
	github.com/spf13/cast v1.4.1 // indirect
	github.com/spf13/jwalterweatherman v1.1.0 // indirect
	github.com/spf13/pflag v1.0.5 // indirect
	github.com/subosito/gotenv v1.2.0 // indirect
	github.com/tinylib/msgp v1.1.6 // indirect
	github.com/valyala/bytebufferpool v1.0.0 // indirect
	github.com/valyala/fasttemplate v1.2.1 // indirect
	github.com/wiggin77/cfg v1.0.2 // indirect
	github.com/wiggin77/merror v1.0.3 // indirect
	github.com/wiggin77/srslog v1.0.1 // indirect
	go.uber.org/atomic v1.9.0 // indirect
	go.uber.org/multierr v1.7.0 // indirect
	go.uber.org/zap v1.17.0 // indirect
	golang.org/x/crypto v0.0.0-20210921155107-089bfa567519 // indirect
	golang.org/x/net v0.0.0-20211006190231-62292e806868 // indirect
	golang.org/x/sys v0.0.0-20211007075335-d3039528d8ac // indirect
	golang.org/x/term v0.0.0-20201126162022-7de9c90e9dd1 // indirect
	golang.org/x/text v0.3.7 // indirect
	golang.org/x/time v0.0.0-20201208040808-7e3f01d25324 // indirect
	google.golang.org/appengine v1.6.7 // indirect
	google.golang.org/protobuf v1.27.1 // indirect
	gopkg.in/ini.v1 v1.63.2 // indirect
	gopkg.in/natefinch/lumberjack.v2 v2.0.0 // indirect
	gopkg.in/yaml.v2 v2.4.0 // indirect
	gopkg.in/yaml.v3 v3.0.0-20210107192922-496545a6307b // indirect
)

go 1.17
